Simulate the number of iterations needed to generate a random community that is sufficiently different from the original community — cpr_iter_sim • canaper
…
Only presence/absence information is used to calculate percentage similarity
between community matrices.

    Examples

# Simulate generation of a random community with maximum of 10,000
# iterations, recording similarity every 100 iterations
(res <- cpr_iter_sim(
  comm = biod_example$comm,
  null_model = "swap",
  n_iterations = 10000,
  thin = 100,
  seed = 123
))
#> # A tibble: 100 × 2
#>    iteration similarity
#>        <int>      <dbl>
#>  1       100      0.928
#>  2       200      0.896
#>  3       300      0.879
#>  4       400      0.864
#>  5       500      0.860
#>  6       600      0.862
#>  7       700      0.862
#>  8       800      0.856
#>  9       900      0.858
#> 10      1000      0.858
#> # … with 90 more rows
…
