CANAPE example • canaper
…
# Switch back to sequential (non-parallel) mode
plan(sequential)

Let’s take a peek at the output.

acacia_rand_res
#> # A tibble: 3,037 × 55
#>    site    pd_obs pd_rand_mean pd_rand_sd pd_obs_z pd_obs_c_upper pd_obs_c_lower
#>    <chr>    <dbl>        <dbl>      <dbl>    <dbl>          <dbl>          <dbl>
#>  1 '-1025… 0.0145       0.0224    0.00451 -1.76                 2             98
#>  2 '-1025… 0.0383       0.0491    0.00794 -1.37                 8             92
#>  3 '-1025… 0.0379       0.0379    0.00696 -0.00640             54             46
#>  4 '-1025… 0.0571       0.0616    0.00776 -0.570               33             67
#>  5 '-1025… 0.0410       0.0415    0.00704 -0.0747              52             48
#>  6 '-1025… 0.0100       0.0103    0.00230 -0.126               55             45
#>  7 '-1025… 0.0188       0.0228    0.00411 -0.980               17             83
#>  8 '-1025… 0.0435       0.0539    0.00724 -1.44                 8             92
#>  9 '-1025… 0.0111       0.0103    0.00232  0.377               80             20
#> 10 '-1025… 0.0905       0.0861    0.0102   0.429               67             33
#> # … with 3,027 more rows, and 48 more variables: pd_obs_q <dbl>,
#> #   pd_obs_p_upper <dbl>, pd_obs_p_lower <dbl>, pd_alt_obs <dbl>,
#> #   pd_alt_rand_mean <dbl>, pd_alt_rand_sd <dbl>, pd_alt_obs_z <dbl>,
#> #   pd_alt_obs_c_upper <dbl>, pd_alt_obs_c_lower <dbl>, pd_alt_obs_q <dbl>,
#> #   pd_alt_obs_p_upper <dbl>, pd_alt_obs_p_lower <dbl>, rpd_obs <dbl>,
#> #   rpd_rand_mean <dbl>, rpd_rand_sd <dbl>, rpd_obs_z <dbl>,
#> #   rpd_obs_c_upper <dbl>, rpd_obs_c_lower <dbl>, rpd_obs_q <dbl>, …
…
