How many randomizations? • canaper
…
Next we will test the effects of n_iterations, using the test dataset that comes with canaper (and Biodiverse). I will compare the percentage similarity between the original matrix and successive iterations of a randomized matrix. This can be done using the cpr_iter_sim() function:

# Conduct up to 10,000 iterations (swaps),
# recording similarity every 10 iterations
iter_sim_res <- cpr_iter_sim(
  comm = biod_example$comm,
  null_model = "swap",
  n_iterations = 10000,
  thin = 10,
  seed = 123
)

# Check the output
iter_sim_res
#> # A tibble: 1,000 × 2
#>    iteration similarity
#>        <int>      <dbl>
#>  1        10      0.990
#>  2        20      0.981
#>  3        30      0.973
#>  4        40      0.965
#>  5        50      0.957
#>  6        60      0.949
#>  7        70      0.944
#>  8        80      0.938
#>  9        90      0.934
#> 10       100      0.928
#> # … with 990 more rows
…
